pane	0	1	:zsh	0	:-	1	:/Users/rlaney/Projects/Network Automation/Python-Packet-Sniffer-master	1	zsh	:
pane	0	2	:nvim	1	:*	1	:/Users/rlaney	1	nvim	:nvim
window	0	1	0	:-	d03d,178x48,0,0,0
window	0	2	1	:*	d03e,178x48,0,0,1
state	0	
