pane	0	1	:Vim	1	:*	1	:/Users/rlaney	1	Vim	:/usr/local/Cellar/macvim/7.4-88/MacVim.app/Contents/MacOS/Vim Dropbox (Personal)/cheaters/cheaters/cheatsheets/OpenDaylight_Openstack_Project.html
pane	0	2	:zsh	0	:-	1	:/Users/rlaney	1	zsh	:
window	0	1	1	:*	d03d,178x48,0,0,0
window	0	2	0	:-	d03e,178x48,0,0,1
state	0	
