pane	0	1	:ssh	0	:	1	:/Users/rlaney	1	ssh	:ssh sw2
pane	0	2	:ssh	0	:	1	:/Users/rlaney	1	ssh	:ssh controller01
pane	0	3	:zsh	1	:*	1	:/Users/rlaney	1	zsh	:
pane	0	4	:Vim	0	:-	1	:/Users/rlaney	1	Vim	:/usr/local/Cellar/macvim/7.4-86/MacVim.app/Contents/MacOS/Vim
window	0	1	0	:	d15e,238x58,0,0,1
window	0	2	0	:	d15f,238x58,0,0,2
window	0	3	1	:*	d161,238x58,0,0,4
window	0	4	0	:-	d162,238x58,0,0,5
state	0	
