pane	0	1	:ssh	0	:	1	:/Users/rlaney	1	ssh	:ssh virl
pane	0	2	:ssh	0	:	1	:/Users/rlaney	1	ssh	:ssh ns2
pane	0	3	:ssh	1	:*	1	:/Users/rlaney	1	ssh	:ssh compute02
pane	0	4	:ssh	0	:-	1	:/Users/rlaney	1	ssh	:ssh compute03
window	0	1	0	:	d15f,238x58,0,0,2
window	0	2	0	:	d160,238x58,0,0,3
window	0	3	1	:*	d162,238x58,0,0,5
window	0	4	0	:-	d163,238x58,0,0,6
state	0	
