pane	0	1	:vim	1	:*	1	:/Users/rlaney/.bin	1	Vim	:/usr/local/Cellar/macvim/7.4-82/MacVim.app/Contents/MacOS/Vim ssh-copy-id.sh
pane	0	2	:~	0	:-	1	:/Users/rlaney	1	zsh	:
window	0	1	1	:*	d15d,238x58,0,0,0
window	0	2	0	:-	d15e,238x58,0,0,1
state	0	
