pane	0	1	:zsh	0	:-	1	:/Users/rlaney	1	zsh	:
pane	0	2	:ssh	1	:*	1	:/Users/rlaney	1	ssh	:ssh network01
pane	0	2	:ssh	1	:*	2	:/Users/rlaney	0	Vim	:/usr/local/Cellar/macvim/7.4-86/MacVim.app/Contents/MacOS/Vim
pane	0	3	:Vim	0	:	1	:/Users/rlaney	1	Vim	:/usr/local/Cellar/macvim/7.4-86/MacVim.app/Contents/MacOS/Vim
window	0	1	0	:-	d15e,238x58,0,0,1
window	0	2	1	:*	50fd,238x58,0,0{119x58,0,0,2,118x58,120,0,7}
window	0	3	0	:	d162,238x58,0,0,5
state	0	
