pane	0	1	:zsh	0	:-	1	:/Users/rlaney	1	zsh	:
pane	0	2	:zsh	1	:*	1	:/Users/rlaney/temp	0	ssh	:ssh dc4-master
pane	0	2	:zsh	1	:*	2	:/Users/rlaney/temp	1	zsh	:
window	0	1	0	:-	d15d,238x58,0,0,0
window	0	2	1	:*	50fb,238x58,0,0{119x58,0,0,2,118x58,120,0,3}
state	0	
