pane	0	1	:~	0	:	1	:/Users/rlaney	1	zsh	:
pane	0	2	:~	0	:-	1	:/Users/rlaney	1	ssh	:ssh ns1
pane	0	3	:~/.bin	1	:*	1	:/Users/rlaney/.bin	1	zsh	:
window	0	1	0	:	d15d,238x58,0,0,0
window	0	2	0	:-	d15e,238x58,0,0,1
window	0	3	1	:*	d15f,238x58,0,0,2
state	0	
