pane	0	1	:ssh	1	:*	1	:/Users/rlaney	0	ssh	:ssh controller01
pane	0	1	:ssh	1	:*	2	:/Users/rlaney	1	ssh	:ssh network01
pane	0	2	:ssh	0	:	1	:/Users/rlaney	1	ssh	:ssh virl
pane	0	3	:Vim	0	:-	1	:/Users/rlaney	1	Vim	:/usr/local/Cellar/macvim/7.4-86/MacVim.app/Contents/MacOS/Vim Dropbox (Personal)/cheaters/cheaters/cheatsheets/New Cheats/NeutronCLI.html
window	0	1	1	:*	50fb,238x58,0,0{119x58,0,0,0,118x58,120,0,7}
window	0	2	0	:	d15e,238x58,0,0,1
window	0	3	0	:-	d15f,238x58,0,0,2
state	0	
