pane	0	1	:~	0	:-	1	:/Users/rlaney	1	ssh	:ssh compute02
pane	0	2	:virl@virl	1	:*	1	:/Users/rlaney	1	ssh	:ssh virl@virl
pane	0	3	:~	0	:	1	:/Users/rlaney	1	zsh	:
window	0	1	0	:-	d15d,238x58,0,0,0
window	0	2	1	:*	d15f,238x58,0,0,2
window	0	3	0	:	d160,238x58,0,0,3
state	0	
