pane	0	1	:virl@virl	0	:	1	:/Users/rlaney	1	ssh	:ssh virl@virl
pane	0	2	:~	0	:-	1	:/Users/rlaney	1	ssh	:ssh compute03
pane	0	3	:..mux/resurrect	1	:*	1	:/Users/rlaney/.tmux/resurrect	1	zsh	:
window	0	1	0	:	d03d,178x48,0,0,0
window	0	2	0	:-	d03e,178x48,0,0,1
window	0	3	1	:*	d03f,178x48,0,0,2
state	0	
