pane	0	1	:ssh	0	:-	1	:/Users/rlaney	1	ssh	:ssh controller01
pane	0	2	:ssh	1	:*	1	:/Users/rlaney	1	ssh	:ssh virl
pane	0	3	:Vim	0	:	1	:/Users/rlaney	1	Vim	:/usr/local/Cellar/macvim/7.4-86/MacVim.app/Contents/MacOS/Vim Dropbox (Personal)/cheaters/cheaters/cheatsheets/New Cheats/NeutronCLI.html
window	0	1	0	:-	d15d,238x58,0,0,0
window	0	2	1	:*	d15e,238x58,0,0,1
window	0	3	0	:	d15f,238x58,0,0,2
state	0	
