pane	0	1	:~	1	:*	1	:/Users/rlaney	1	zsh	:
pane	0	2	:compute03	0	:	1	:/Users/rlaney	1	ssh	:ssh compute03
pane	0	3	:~	0	:-	1	:/Users/rlaney	1	zsh	:
window	0	1	1	:*	ccfe,120x39,0,0,1
window	0	2	0	:	ccff,120x39,0,0,2
window	0	3	0	:-	cd03,120x39,0,0,6
state	0	
