pane	0	1	:v	1	:*	1	:/Users/rlaney/.keychain	1	Vim	:/usr/local/Cellar/macvim/7.4-82/MacVim.app/Contents/MacOS/Vim flypro.local-sh
pane	0	2	:~/.keychain	0	:-	1	:/Users/rlaney/.keychain	1	zsh	:
window	0	1	1	:*	d15d,238x58,0,0,0
window	0	2	0	:-	d15e,238x58,0,0,1
state	0	
