pane	0	1	:zsh	0	:-	1	:/Users/rlaney	1	zsh	:
pane	0	2	:ssh	1	:*	1	:/Users/rlaney	1	ssh	:ssh virl
pane	0	3	:ssh	0	:	1	:/Users/rlaney	1	ssh	:ssh sw2
pane	0	3	:ssh	0	:	2	:/Users/rlaney	0	zsh	:
window	0	1	0	:-	d15d,238x58,0,0,0
window	0	2	1	:*	d15e,238x58,0,0,1
window	0	3	0	:	50fb,238x58,0,0{119x58,0,0,2,118x58,120,0,3}
state	0	
