pane	0	1	:Vim	1	:*	1	:/Users/rlaney/scripts	1	Vim	:/usr/local/Cellar/macvim/7.4-88/MacVim.app/Contents/MacOS/Vim cloud-init.yml
pane	0	2	:zsh	0	:-	1	:/Users/rlaney	1	zsh	:
pane	0	3	:Vim	0	:	1	:/Users/rlaney	1	Vim	:/usr/local/Cellar/macvim/7.4-86/MacVim.app/Contents/MacOS/Vim
window	0	1	1	:*	d15e,238x58,0,0,1
window	0	2	0	:-	d15f,238x58,0,0,2
window	0	3	0	:	d162,238x58,0,0,5
state	0	
