pane	0	1	:vim	1	:*	1	:/Users/rlaney	1	ssh	:ssh virl@virl
pane	0	1	:vim	1	:*	2	:/Users/rlaney	0	ssh	:ssh ns1
pane	0	1	:vim	1	:*	3	:/Users/rlaney	0	ssh	:ssh sw2
pane	0	2	:~	0	:	1	:/Users/rlaney	1	zsh	:
pane	0	3	:~	0	:-	1	:/Users/rlaney	1	zsh	:
window	0	1	1	:*	3f70,238x58,0,0{119x58,0,0,1,118x58,120,0[118x48,120,0,4,118x9,120,49,5]}
window	0	2	0	:	d15f,238x58,0,0,2
window	0	3	0	:-	d160,238x58,0,0,3
state	0	
