pane	0	1	:~	1	:*	1	:/Users/rlaney	1	ssh	:ssh virl
pane	0	2	:~	0	:	1	:/Users/rlaney	1	ssh	:ssh controller01
pane	0	3	:~	0	:-	1	:/Users/rlaney	1	ssh	:ssh compute02
window	0	1	1	:*	d03d,178x48,0,0,0
window	0	2	0	:	d03e,178x48,0,0,1
window	0	3	0	:-	d03f,178x48,0,0,2
state	0	
