pane	0	1	:zsh	0	:	1	:/Users/rlaney	1	zsh	:
pane	0	2	:zsh	0	:-	1	:/Users/rlaney	1	zsh	:
pane	0	3	:zsh	1	:*	1	:/Users/rlaney/Documents/MayccollUtils	1	zsh	:
window	0	1	0	:	d15d,238x58,0,0,0
window	0	2	0	:-	d15e,238x58,0,0,1
window	0	3	1	:*	d15f,238x58,0,0,2
state	0	
