pane	0	1	:~	1	:*	1	:/Users/rlaney	1	zsh	:
pane	0	2	:~/images	0	:-	1	:/Users/rlaney	1	ssh	:ssh controller01
pane	0	3	:~	0	:	1	:/Users/rlaney	1	ssh	:ssh ns1
window	0	1	1	:*	d03d,178x48,0,0,0
window	0	2	0	:-	d03f,178x48,0,0,2
window	0	3	0	:	d040,178x48,0,0,3
state	0	
