pane	0	1	:~	0	:	1	:/Users/rlaney	1	ssh	:ssh ns1
pane	0	2	:sw2	0	:-	1	:/Users/rlaney	1	ssh	:ssh sw2
pane	0	3	:vim	1	:*	1	:/Users/rlaney	1	ssh	:ssh virl@virl
pane	0	3	:vim	1	:*	2	:/Users/rlaney	0	Vim	:/usr/local/Cellar/macvim/7.4-82/MacVim.app/Contents/MacOS/Vim
window	0	1	0	:	d15d,238x58,0,0,0
window	0	2	0	:-	d15e,238x58,0,0,1
window	0	3	1	:*	50fb,238x58,0,0{119x58,0,0,2,118x58,120,0,3}
state	0	
