pane	0	1	:ssh	1	:*	1	:/Users/rlaney/Projects/Python_SSH/SSHenv	1	ssh	:ssh admin@10.73.225.9
pane	0	2	:zsh	0	:-	1	:/Users/rlaney/.virtualenvs	1	zsh	:
pane	0	3	:ssh	0	:	1	:/Users/rlaney/.virtualenvs	1	ssh	:ssh dc4-poller
pane	0	4	:ssh	0	:	1	:/Users/rlaney	1	ssh	:ssh rlaney@10.73.225.212
window	0	1	1	:*	d15d,238x58,0,0,0
window	0	2	0	:-	d15e,238x58,0,0,1
window	0	3	0	:	d160,238x58,0,0,3
window	0	4	0	:	d161,238x58,0,0,4
state	0	
