pane	0	1	:ssh	0	:-	1	:/Users/rlaney	1	ssh	:ssh sw1
pane	0	1	:ssh	0	:-	2	:/Users/rlaney	0	ssh	:ssh sw2
pane	0	2	:ssh	1	:*	1	:/Users/rlaney	1	ssh	:ssh fw1
pane	0	2	:ssh	1	:*	2	:/Users/rlaney	0	ssh	:ssh fw2
window	0	1	0	:-	d95c,178x48,0,0{89x48,0,0,2,88x48,90,0,3}
window	0	2	1	:*	d965,178x48,0,0{89x48,0,0,4,88x48,90,0,5}
state	0	
