pane	0	1	:Vim	1	:*	1	:/Users/rlaney	1	Vim	:/usr/local/Cellar/macvim/7.4-88/MacVim.app/Contents/MacOS/Vim /Users/rlaney/.config/env.zsh
pane	0	2	:ssh	0	:-	1	:/Users/rlaney	1	ssh	:ssh sw2
window	0	1	1	:*	d15d,238x58,0,0,0
window	0	2	0	:-	d15e,238x58,0,0,1
state	0	
