pane	0	1	:vim	1	:*	1	:/Users/rlaney	1	ssh	:ssh controller01
pane	0	2	:.._controller01	0	:-	1	:/Users/rlaney	1	ssh	:ssh controller01
pane	0	3	:v	0	:	1	:/Users/rlaney/.bin	1	Vim	:/usr/local/Cellar/macvim/7.4-82/MacVim.app/Contents/MacOS/Vim tweakosx.sh
window	0	1	1	:*	d15d,238x58,0,0,0
window	0	2	0	:-	d15e,238x58,0,0,1
window	0	3	0	:	d15f,238x58,0,0,2
state	0	
