pane	0	1	:ssh	0	:-	1	:/Users/rlaney	0	ssh	:ssh sw1
pane	0	1	:ssh	0	:-	2	:/Users/rlaney	1	ssh	:ssh sw2
pane	0	2	:zsh	1	:*	1	:/Users/rlaney	1	zsh	:
window	0	1	0	:-	50f9,238x58,0,0{119x58,0,0,0,118x58,120,0,3}
window	0	2	1	:*	d15f,238x58,0,0,2
state	0	
