pane	0	1	:zsh	0	:	1	:/Users/rlaney	1	zsh	:
pane	0	2	:zsh	1	:*	1	:/Users/rlaney	0	ssh	:ssh rlaney@10.66.7.2
pane	0	2	:zsh	1	:*	2	:/Users/rlaney	1	zsh	:
pane	0	3	:Vim	0	:-	1	:/Users/rlaney	1	Vim	:/usr/local/Cellar/macvim/7.4-86/MacVim.app/Contents/MacOS/Vim
window	0	1	0	:	d15d,238x58,0,0,0
window	0	2	1	:*	d0fa,238x58,0,0{119x58,0,0,1,118x58,120,0,4}
window	0	3	0	:-	d160,238x58,0,0,3
state	0	
