pane	0	1	:vim	1	:*	1	:/Users/rlaney	1	ssh	:ssh virl
pane	0	2	:~	0	:	1	:/Users/rlaney	1	zsh	:
pane	0	3	:vim	0	:-	1	:/Users/rlaney	1	ssh	:ssh ns2
pane	0	4	:tconfig	0	:	1	:/Users/rlaney	1	Vim	:/usr/local/Cellar/macvim/7.4-82/MacVim.app/Contents/MacOS/Vim /Users/rlaney/.tmux.conf
window	0	1	1	:*	d15d,238x58,0,0,0
window	0	2	0	:	d161,238x58,0,0,4
window	0	3	0	:-	d162,238x58,0,0,5
window	0	4	0	:	d163,238x58,0,0,6
state	0	
