pane	0	1	:Vim	1	:*	1	:/Users/rlaney	1	Vim	:/usr/local/Cellar/macvim/7.4-86/MacVim.app/Contents/MacOS/Vim .bin/ralssh.sh
pane	0	2	:zsh	0	:-	1	:/Users/rlaney/.bin	1	zsh	:
window	0	1	1	:*	d15d,238x58,0,0,0
window	0	2	0	:-	d15e,238x58,0,0,1
state	0	
