pane	0	1	:ssh	0	:-	1	:/Users/rlaney	0	ssh	:ssh sw1
pane	0	1	:ssh	0	:-	2	:/Users/rlaney	1	ssh	:ssh sw2
pane	0	2	:ssh	1	:*	1	:/Users/rlaney	0	ssh	:ssh fw1
pane	0	2	:ssh	1	:*	2	:/Users/rlaney	1	ssh	:ssh fw2
window	0	1	0	:-	50f8,238x58,0,0{119x58,0,0,0,118x58,120,0,1}
window	0	2	1	:*	50ee,238x58,0,0{119x58,0,0,4,118x58,120,0,5}
state	0	
