pane	0	1	:ssh	0	:-	1	:/Users/rlaney	1	ssh	:ssh sw2
pane	0	2	:ssh	0	:	1	:/Users/rlaney	1	ssh	:ssh 10.0.25.102
pane	0	3	:ssh	0	:	1	:/Users/rlaney	1	ssh	:ssh 10.0.25.103
pane	0	4	:zsh	1	:*	1	:/Users/rlaney	1	zsh	:
window	0	1	0	:-	d15d,238x58,0,0,0
window	0	2	0	:	d15e,238x58,0,0,1
window	0	3	0	:	d15f,238x58,0,0,2
window	0	4	1	:*	d160,238x58,0,0,3
state	0	
