pane	0	1	:virl@virl	0	:-	1	:/Users/rlaney	1	ssh	:ssh virl@virl
pane	0	2	:sw2	1	:*	1	:/Users/rlaney	1	ssh	:ssh sw2
pane	0	3	:~	0	:	1	:/Users/rlaney	1	zsh	:
window	0	1	0	:-	d03d,178x48,0,0,0
window	0	2	1	:*	d03e,178x48,0,0,1
window	0	3	0	:	d03f,178x48,0,0,2
state	0	
