pane	0	1	:zsh	0	:-	1	:/Users/rlaney	1	zsh	:
pane	0	2	:ssh	1	:*	1	:/Users/rlaney	1	ssh	:ssh admin@167.173.203.4
pane	0	2	:ssh	1	:*	2	:/Users/rlaney	0	ssh	:ssh admin@167.173.203.3
window	0	1	0	:-	d15d,238x58,0,0,0
window	0	2	1	:*	d0fb,238x58,0,0{119x58,0,0,2,118x58,120,0,4}
state	0	
