pane	0	1	:sw2	1	:*	1	:/Users/rlaney	0	ssh	:ssh virl@virl
pane	0	1	:sw2	1	:*	2	:/Users/rlaney	1	ssh	:ssh ns1
pane	0	1	:sw2	1	:*	3	:/Users/rlaney	0	ssh	:ssh sw2
pane	0	2	:~	0	:	1	:/Users/rlaney	1	zsh	:
pane	0	3	:~	0	:-	1	:/Users/rlaney	1	zsh	:
window	0	1	1	:*	f969,238x58,0,0{119x58,0,0,1,118x58,120,0[118x29,120,0,4,118x28,120,30,5]}
window	0	2	0	:	d15f,238x58,0,0,2
window	0	3	0	:-	d160,238x58,0,0,3
state	0	
