pane	0	1	:zsh	0	:	1	:/Users/rlaney	1	zsh	:
pane	0	2	:zsh	0	:-	1	:/Users/rlaney/Logs	1	zsh	:
pane	0	3	:ssh	1	:*	1	:/Users/rlaney/.bin	1	ssh	:ssh rlaney@10.73.225.212
window	0	1	0	:	d15d,238x58,0,0,0
window	0	2	0	:-	d15e,238x58,0,0,1
window	0	3	1	:*	d160,238x58,0,0,3
state	0	
