pane	0	1	:~	0	:	1	:/Users/rlaney	1	zsh	:
pane	0	2	:virl@virl	0	:	1	:/Users/rlaney	1	ssh	:ssh virl@virl
pane	0	3	:~	1	:*	1	:/Users/rlaney	1	zsh	:
pane	0	4	:/etc/bind/zones	0	:	1	:/Users/rlaney	1	ssh	:ssh ns1
pane	0	5	:~	0	:!-	1	:/Users/rlaney	1	zsh	:
window	0	1	0	:	d161,238x58,0,0,4
window	0	2	0	:	d162,238x58,0,0,5
window	0	3	1	:*	d163,238x58,0,0,6
window	0	4	0	:	d164,238x58,0,0,7
window	0	5	0	:!-	d165,238x58,0,0,8
state	0	
