pane	0	1	:sw2	0	:	1	:/Users/rlaney	1	ssh	:ssh sw1
pane	0	1	:sw2	0	:	2	:/Users/rlaney	0	ssh	:ssh sw2
pane	0	2	:~	0	:-	1	:/Users/rlaney	0	ssh	:ssh ns1
pane	0	2	:~	0	:-	2	:/Users/rlaney	1	zsh	:
pane	0	3	:sv	1	:*	1	:	1	zsh	:sudo vim /etc/ssh_config
window	0	1	0	:	b104,178x48,0,0[178x24,0,0,0,178x23,0,25,1]
window	0	2	0	:-	b109,178x48,0,0[178x24,0,0,2,178x23,0,25,3]
window	0	3	1	:*	d041,178x48,0,0,4
state	0	
