pane	0	1	:ssh	0	:-	1	:/Users/rlaney	1	ssh	:ssh ubu
pane	0	2	:zsh	1	:*	1	:/Users/rlaney/.config/vcsh/repo.d	1	zsh	:
pane	0	3	:zsh	0	:	1	:/Users/rlaney	1	zsh	:
window	0	1	0	:-	d15d,238x58,0,0,0
window	0	2	1	:*	d15e,238x58,0,0,1
window	0	3	0	:	d15f,238x58,0,0,2
state	0	
